Project 1-Exploratory Data Analysis
…
1. Tidying

untidy <- mlbtt %>% pivot_wider(names_from = "lgid", values_from = "yearid")
untidy

## # A tibble: 172 x 16
##    gamenum gameid tm_off_talent tm_def_talent tm_pit_talent mlb_avg_rpg
##      <int> <chr>          <dbl>         <dbl>         <dbl>       <dbl>
##  1       0 NLS19~         1.33         0.131          0.721        3.99
##  2       0 NLS19~         1.05         0.356          0.677        4.41
##  3       0 NLS19~         1.78         0.117          0.628        4.91
##  4       0 ALS19~         1.47         0.0908         0.617        4.49
##  5       0 NLS19~         1.36         0.139          0.673        4.68
##  6       0 NLS19~         1.18         0.133          0.550        4.04
##  7       0 ALS19~         0.963        0.184          0.583        4.01
##  8       0 NLS19~         1.00         0.126          0.498        3.69
##  9       0 ALS19~         1.25         0.109          0.717        4.77
## 10       0 ALS19~         1.41         0.0508         0.668        4.77
## # ... with 162 more rows, and 10 more variables: talent_rspg <dbl>,
## #   talent_rapg <dbl>, unadj_pyth <dbl>, timeline_adj <dbl>, sos <dbl>,
## #   adj_pyth <dbl>, no_1_player <chr>, no_2_player <chr>, NL <int>,
## #   AL <int>

tidyagain <- untidy %>% pivot_longer(cols = c("AL", "NL"), names_to = "lgid", 
    values_to = "yearid") %>% na.omit
tidyagain

## # A tibble: 172 x 16
##    gamenum gameid tm_off_talent tm_def_talent tm_pit_talent mlb_avg_rpg
##      <int> <chr>          <dbl>         <dbl>         <dbl>       <dbl>
##  1       0 NLS19~         1.33         0.131          0.721        3.99
##  2       0 NLS19~         1.05         0.356          0.677        4.41
##  3       0 NLS19~         1.78         0.117          0.628        4.91
##  4       0 ALS19~         1.47         0.0908         0.617        4.49
##  5       0 NLS19~         1.36         0.139          0.673        4.68
##  6       0 NLS19~         1.18         0.133          0.550        4.04
##  7       0 ALS19~         0.963        0.184          0.583        4.01
##  8       0 NLS19~         1.00         0.126          0.498        3.69
##  9       0 ALS19~         1.25         0.109          0.717        4.77
## 10       0 ALS19~         1.41         0.0508         0.668        4.77
## # ... with 162 more rows, and 10 more variables: talent_rspg <dbl>,
## #   talent_rapg <dbl>, unadj_pyth <dbl>, timeline_adj <dbl>, sos <dbl>,
## #   adj_pyth <dbl>, no_1_player <chr>, no_2_player <chr>, lgid <chr>,
## #   yearid <int>
…
In the second plot, we see the average runs per game scored within each league throughout history. In the earlier years, the AL scored more runs on average than the NL. However, from about 1950 onward, no league definitively scored more runs per game. This also inidicates similar strength of schedules and talent within each league, supporting the first bar graph as well.

5. Dimensionality Reduction-PCA

innerdata %>% mutate(is.character(as.factor))

## # A tibble: 3,930 x 28
##    yearid gamenum gameid lgid  tm_off_talent tm_def_talent tm_pit_talent
##     <int>   <int> <chr>  <chr>         <dbl>         <dbl>         <dbl>
##  1   1966       0 NLS19~ NL             1.33         0.131         0.721
##  2   1966       0 NLS19~ NL             1.33         0.131         0.721
##  3   1966       0 NLS19~ NL             1.33         0.131         0.721
##  4   1966       0 NLS19~ NL             1.33         0.131         0.721
##  5   1966       0 NLS19~ NL             1.33         0.131         0.721
##  6   1966       0 NLS19~ NL             1.33         0.131         0.721
##  7   1966       0 NLS19~ NL             1.33         0.131         0.721
##  8   1966       0 NLS19~ NL             1.33         0.131         0.721
##  9   1966       0 NLS19~ NL             1.33         0.131         0.721
## 10   1966       0 NLS19~ NL             1.33         0.131         0.721
## # ... with 3,920 more rows, and 21 more variables: mlb_avg_rpg <dbl>,
## #   talent_rspg <dbl>, talent_rapg <dbl>, unadj_pyth <dbl>,
## #   timeline_adj <dbl>, sos <dbl>, adj_pyth <dbl>, no_1_player <chr>,
## #   no_2_player <chr>, bbref_id <chr>, startingpos <chr>, off600 <dbl>,
## #   def600 <dbl>, pitch200 <dbl>, asg_pa <int>, asg_ip <dbl>,
## #   offper9innasg <dbl>, defper9innasg <dbl>, pitper9innasg <dbl>,
## #   totper9innasg <dbl>, `is.character(as.factor)` <lgl>
…
